<svg width="16" height="16" viewBox="0 0 16 16" fill="none" xmlns="http://www.w3.org/2000/svg">
<g clip-path="url(#clip0)">
<path d="M9.88577 6.11313C9.75577 5.98312 9.54442 5.98312 9.41442 6.11313C9.28442 6.24313 9.28442 6.45514 9.41442 6.58448C9.79177 6.96184 10.0004 7.46385 10.0004 7.99852C10.0004 9.1012 9.10308 9.99857 8.00042 9.99857C7.46577 9.99857 6.96377 9.79056 6.58642 9.41255C6.45642 9.28255 6.24508 9.28255 6.11508 9.41255C5.98508 9.5419 5.98508 9.7539 6.11508 9.88391C6.61773 10.3879 7.28774 10.6653 8.00042 10.6653C9.47108 10.6653 10.6671 9.46924 10.6671 7.99855C10.6671 7.28581 10.3898 6.6158 9.88577 6.11313Z" fill="#23419A"/>
<path d="M8.46432 5.37412C8.31298 5.34747 8.15832 5.32812 7.99967 5.32812C6.52901 5.32812 5.33301 6.52412 5.33301 7.99478C5.33301 8.15343 5.35235 8.30812 5.37966 8.45943C5.40832 8.62078 5.54901 8.73478 5.70701 8.73478C5.72635 8.73478 5.74566 8.73343 5.76566 8.72943C5.94632 8.69743 6.06766 8.52409 6.03566 8.34343C6.01501 8.23009 5.99967 8.11478 5.99967 7.99478C5.99967 6.89212 6.89701 5.99478 7.99967 5.99478C8.11967 5.99478 8.23501 6.01012 8.34832 6.03012C8.52567 6.06612 8.70232 5.94078 8.73432 5.76012C8.76632 5.57947 8.64501 5.40612 8.46432 5.37412Z" fill="#23419A"/>
<path d="M15.9207 7.78564C15.8454 7.6963 14.0421 5.59165 11.5547 4.30299C11.3934 4.21834 11.1901 4.28234 11.1054 4.44634C11.0207 4.60968 11.0847 4.81099 11.2487 4.89568C13.1647 5.88768 14.6954 7.43567 15.2187 8.00102C14.4241 8.86167 11.2967 12.001 8.00009 12.001C6.88144 12.001 5.75409 11.731 4.6481 11.1977C4.4841 11.117 4.28344 11.187 4.20344 11.353C4.12278 11.5184 4.19278 11.7177 4.35878 11.7977C5.55544 12.3757 6.78078 12.6677 8.00012 12.6677C12.1075 12.6677 15.7674 8.39833 15.9214 8.21633C16.0267 8.0923 16.0261 7.9103 15.9207 7.78564Z" fill="#23419A"/>
<path d="M10.1874 3.71212C9.42871 3.45678 8.69272 3.32812 8.00003 3.32812C3.89269 3.32812 0.232701 7.59746 0.0787014 7.77946C-0.0186422 7.89412 -0.0266421 8.0608 0.0600452 8.18546C0.106045 8.25146 1.20804 9.81611 3.11804 11.0848C3.1747 11.1228 3.23804 11.1408 3.30204 11.1408C3.40938 11.1408 3.51538 11.0888 3.57938 10.9908C3.68138 10.8381 3.63938 10.6308 3.48604 10.5295C2.08339 9.5968 1.12339 8.4708 0.764044 8.0128C1.53139 7.17946 4.67938 3.99481 8.00003 3.99481C8.62069 3.99481 9.28537 4.11215 9.97468 4.34347C10.1493 4.40612 10.3387 4.30947 10.3967 4.13412C10.4554 3.95947 10.362 3.77081 10.1874 3.71212Z" fill="#23419A"/>
<path d="M13.9021 2.0975C13.7721 1.9675 13.5608 1.9675 13.4308 2.0975L2.0975 13.4308C1.9675 13.5608 1.9675 13.7722 2.0975 13.9022C2.16284 13.9668 2.24816 13.9995 2.3335 13.9995C2.41884 13.9995 2.50416 13.9669 2.56884 13.9022L13.9021 2.56884C14.0321 2.43884 14.0321 2.2275 13.9021 2.0975Z" fill="#23419A"/>
</g>
<defs>
<clipPath id="clip0">
<rect width="16" height="16" fill="white"/>
</clipPath>
</defs>
</svg>
